('C:\\python_selanium\\test\\dist\\Edit_student.exe',
 False,
 False,
 False,
 None,
 None,
 False,
 False,
 u'<?xml version="1.0" encoding="UTF-8" standalone="yes"?><assembly manifestVersion="1.0" xmlns="urn:schemas-microsoft-com:asm.v1"><assemblyIdentity name="Edit_student" processorArchitecture="amd64" type="win32" version="1.0.0.0"/><dependency><dependentAssembly><assemblyIdentity name="Microsoft.VC90.CRT" processorArchitecture="amd64" publicKeyToken="1fc8b3b9a1e18e3b" type="win32" version="9.0.21022.8"/><compatibility xmlns="urn:schemas-microsoft-com:compatibility.v1"/></dependentAssembly></dependency><dependency><dependentAssembly><assemblyIdentity language="*" name="Microsoft.Windows.Common-Controls" processorArchitecture="amd64" publicKeyToken="6595b64144ccf1df" type="win32" version="6.0.0.0"/><compatibility xmlns="urn:schemas-microsoft-com:compatibility.v1"/></dependentAssembly></dependency><compatibility xmlns="urn:schemas-microsoft-com:compatibility.v1"><application><supportedOS Id="{1f676c76-80e1-4239-95bb-83d0f6d0da78}"/><supportedOS Id="{4a2f28e3-53b9-4441-ba9c-d69d4a4a6e38}"/><supportedOS Id="{e2011457-1546-43c5-a5fe-008deee3d3f0}"/><supportedOS Id="{35138b9a-5d96-4fbd-8e2d-a2440225f93a}"/><supportedOS Id="{8e0f7a12-bfb3-4fe8-b9a5-48fd50a15a9a}"/></application></compatibility></assembly>',
 True,
 'Edit_student.pkg',
 [('PYZ-00.pyz',
   'C:\\python_selanium\\test\\build\\Edit_student\\PYZ-00.pyz',
   'PYZ'),
  ('struct', 'c:\\python27\\lib\\struct.pyc', 'PYMODULE'),
  ('pyimod01_os_path',
   'c:\\python27\\lib\\site-packages\\PyInstaller\\loader\\pyimod01_os_path.pyc',
   'PYMODULE'),
  ('pyimod02_archive',
   'c:\\python27\\lib\\site-packages\\PyInstaller\\loader\\pyimod02_archive.pyc',
   'PYMODULE'),
  ('pyimod03_importers',
   'c:\\python27\\lib\\site-packages\\PyInstaller\\loader\\pyimod03_importers.pyc',
   'PYMODULE'),
  ('pyiboot01_bootstrap',
   'c:\\python27\\lib\\site-packages\\PyInstaller\\loader\\pyiboot01_bootstrap.py',
   'PYSOURCE'),
  ('Edit_student', 'C:\\python_selanium\\test\\Edit_student.py', 'PYSOURCE'),
  (u'Microsoft.VC90.CRT.manifest',
   u'C:\\Windows\\WinSxS\\Manifests\\amd64_microsoft.vc90.crt_1fc8b3b9a1e18e3b_9.0.30729.9317_none_08e0939fa840d57b.manifest',
   'BINARY'),
  (u'msvcr90.dll',
   u'C:\\Windows\\WinSxS\\amd64_microsoft.vc90.crt_1fc8b3b9a1e18e3b_9.0.30729.9317_none_08e0939fa840d57b\\msvcr90.dll',
   'BINARY'),
  (u'msvcp90.dll',
   u'C:\\Windows\\WinSxS\\amd64_microsoft.vc90.crt_1fc8b3b9a1e18e3b_9.0.30729.9317_none_08e0939fa840d57b\\msvcp90.dll',
   'BINARY'),
  (u'msvcm90.dll',
   u'C:\\Windows\\WinSxS\\amd64_microsoft.vc90.crt_1fc8b3b9a1e18e3b_9.0.30729.9317_none_08e0939fa840d57b\\msvcm90.dll',
   'BINARY'),
  ('python27.dll', 'C:\\Windows\\system32\\python27.dll', 'BINARY'),
  ('unicodedata', 'c:\\python27\\DLLs\\unicodedata.pyd', 'EXTENSION'),
  ('bz2', 'c:\\python27\\DLLs\\bz2.pyd', 'EXTENSION'),
  ('_hashlib', 'c:\\python27\\DLLs\\_hashlib.pyd', 'EXTENSION'),
  ('select', 'c:\\python27\\DLLs\\select.pyd', 'EXTENSION'),
  ('_ssl', 'c:\\python27\\DLLs\\_ssl.pyd', 'EXTENSION'),
  ('_socket', 'c:\\python27\\DLLs\\_socket.pyd', 'EXTENSION'),
  ('pyexpat', 'c:\\python27\\DLLs\\pyexpat.pyd', 'EXTENSION'),
  ('_ctypes', 'c:\\python27\\DLLs\\_ctypes.pyd', 'EXTENSION'),
  ('selenium\\webdriver\\firefox\\amd64\\x_ignore_nofocus.so',
   'c:\\python27\\lib\\site-packages\\selenium\\webdriver\\firefox\\amd64\\x_ignore_nofocus.so',
   'DATA'),
  ('selenium\\webdriver\\firefox\\webdriver.xpi',
   'c:\\python27\\lib\\site-packages\\selenium\\webdriver\\firefox\\webdriver.xpi',
   'DATA'),
  ('Include\\pyconfig.h', 'c:\\python27\\Include\\pyconfig.h', 'DATA'),
  ('selenium\\webdriver\\remote\\getAttribute.js',
   'c:\\python27\\lib\\site-packages\\selenium\\webdriver\\remote\\getAttribute.js',
   'DATA'),
  ('selenium\\webdriver\\firefox\\x86\\x_ignore_nofocus.so',
   'c:\\python27\\lib\\site-packages\\selenium\\webdriver\\firefox\\x86\\x_ignore_nofocus.so',
   'DATA'),
  ('selenium\\webdriver\\remote\\isDisplayed.js',
   'c:\\python27\\lib\\site-packages\\selenium\\webdriver\\remote\\isDisplayed.js',
   'DATA'),
  ('selenium\\webdriver\\firefox\\webdriver_prefs.json',
   'c:\\python27\\lib\\site-packages\\selenium\\webdriver\\firefox\\webdriver_prefs.json',
   'DATA'),
  ('Edit_student.exe.manifest',
   'C:\\python_selanium\\test\\build\\Edit_student\\Edit_student.exe.manifest',
   'BINARY'),
  ('pyi-windows-manifest-filename Edit_student.exe.manifest', '', 'OPTION')],
 [],
 False,
 False,
 1538731715L,
 [('runw.exe',
   'c:\\python27\\lib\\site-packages\\PyInstaller\\bootloader\\Windows-64bit\\runw.exe',
   'EXECUTABLE')])
